…
### Objet de class tibble

C'est un data.frame au format tibble.  
L'affichage des colonnes s'adapte à la largeur de la fenêtre de sortie.  
Les dimensions de la table ainsi que le type de chaque colonne sont précisés.


```r
penguins
## # A tibble: 344 x 8
##    species island    bill_length_mm bill_depth_mm flipper_length_mm body_mass_g
##    <fct>   <fct>              <dbl>         <dbl>             <int>       <int>
##  1 Adelie  Torgersen           39.1          18.7               181        3750
##  2 Adelie  Torgersen           39.5          17.4               186        3800
##  3 Adelie  Torgersen           40.3          18                 195        3250
##  4 Adelie  Torgersen           NA            NA                  NA          NA
##  5 Adelie  Torgersen           36.7          19.3               193        3450
##  6 Adelie  Torgersen           39.3          20.6               190        3650
##  7 Adelie  Torgersen           38.9          17.8               181        3625
##  8 Adelie  Torgersen           39.2          19.6               195        4675
##  9 Adelie  Torgersen           34.1          18.1               193        3475
## 10 Adelie  Torgersen           42            20.2               190        4250
## # ... with 334 more rows, and 2 more variables: sex <fct>, year <int>
```
…
## Fonction `filter()`

Sélection de lignes par des valeurs

**Sélectionne les lignes pour lesquelles le poids > 4000 g**


```r
penguins |> 
  filter(body_mass_g > 4000)
## # A tibble: 172 x 8
##    species island    bill_length_mm bill_depth_mm flipper_length_mm body_mass_g
##    <fct>   <fct>              <dbl>         <dbl>             <int>       <int>
##  1 Adelie  Torgersen           39.2          19.6               195        4675
##  2 Adelie  Torgersen           42            20.2               190        4250
##  3 Adelie  Torgersen           34.6          21.1               198        4400
##  4 Adelie  Torgersen           42.5          20.7               197        4500
##  5 Adelie  Torgersen           46            21.5               194        4200
##  6 Adelie  Dream               39.2          21.1               196        4150
##  7 Adelie  Dream               39.8          19.1               184        4650
##  8 Adelie  Dream               44.1          19.7               196        4400
##  9 Adelie  Dream               39.6          18.8               190        4600
## 10 Adelie  Dream               42.3          21.2               191        4150
## # ... with 162 more rows, and 2 more variables: sex <fct>, year <fct>
```
…
```r
suppressPackageStartupMessages(library(tidylog))
```

**Sélectionne les lignes correspondant aux males**


```r
penguins |> 
  filter(sex == "male")
## filter: removed 176 rows (51%), 168 rows remaining
## # A tibble: 168 x 8
##    species island    bill_length_mm bill_depth_mm flipper_length_mm body_mass_g
##    <fct>   <fct>              <dbl>         <dbl>             <int>       <int>
##  1 Adelie  Torgersen           39.1          18.7               181        3750
##  2 Adelie  Torgersen           39.3          20.6               190        3650
##  3 Adelie  Torgersen           39.2          19.6               195        4675
##  4 Adelie  Torgersen           38.6          21.2               191        3800
##  5 Adelie  Torgersen           34.6          21.1               198        4400
##  6 Adelie  Torgersen           42.5          20.7               197        4500
##  7 Adelie  Torgersen           46            21.5               194        4200
##  8 Adelie  Biscoe              37.7          18.7               180        3600
##  9 Adelie  Biscoe              38.2          18.1               185        3950
## 10 Adelie  Biscoe              38.8          17.2               180        3800
## # ... with 158 more rows, and 2 more variables: sex <fct>, year <fct>
```

**Sélectionne les lignes correspondant aux males pour un poids > 4000 gr**


```r
penguins |> 
  filter(sex == "male", body_mass_g > 4000)
## filter: removed 235 rows (68%), 109 rows remaining
## # A tibble: 109 x 8
##    species island    bill_length_mm bill_depth_mm flipper_length_mm body_mass_g
##    <fct>   <fct>              <dbl>         <dbl>             <int>       <int>
##  1 Adelie  Torgersen           39.2          19.6               195        4675
##  2 Adelie  Torgersen           34.6          21.1               198        4400
##  3 Adelie  Torgersen           42.5          20.7               197        4500
##  4 Adelie  Torgersen           46            21.5               194        4200
##  5 Adelie  Dream               39.2          21.1               196        4150
##  6 Adelie  Dream               39.8          19.1               184        4650
##  7 Adelie  Dream               44.1          19.7               196        4400
##  8 Adelie  Dream               39.6          18.8               190        4600
##  9 Adelie  Dream               42.3          21.2               191        4150
## 10 Adelie  Biscoe              40.1          18.9               188        4300
## # ... with 99 more rows, and 2 more variables: sex <fct>, year <fct>
penguins |> 
  filter(sex == "male" & body_mass_g > 4000)
## filter: removed 235 rows (68%), 109 rows remaining
## # A tibble: 109 x 8
##    species island    bill_length_mm bill_depth_mm flipper_length_mm body_mass_g
##    <fct>   <fct>              <dbl>         <dbl>             <int>       <int>
##  1 Adelie  Torgersen           39.2          19.6               195        4675
##  2 Adelie  Torgersen           34.6          21.1               198        4400
##  3 Adelie  Torgersen           42.5          20.7               197        4500
##  4 Adelie  Torgersen           46            21.5               194        4200
##  5 Adelie  Dream               39.2          21.1               196        4150
##  6 Adelie  Dream               39.8          19.1               184        4650
##  7 Adelie  Dream               44.1          19.7               196        4400
##  8 Adelie  Dream               39.6          18.8               190        4600
##  9 Adelie  Dream               42.3          21.2               191        4150
## 10 Adelie  Biscoe              40.1          18.9               188        4300
## # ... with 99 more rows, and 2 more variables: sex <fct>, year <fct>
```

**Sélectionne les poids compris entre 3500 et 4000 gr**


```r
penguins |> 
  filter(between(body_mass_g,  3500, 4500))
## filter: removed 188 rows (55%), 156 rows remaining
## # A tibble: 156 x 8
##    species island    bill_length_mm bill_depth_mm flipper_length_mm body_mass_g
##    <fct>   <fct>              <dbl>         <dbl>             <int>       <int>
##  1 Adelie  Torgersen           39.1          18.7               181        3750
##  2 Adelie  Torgersen           39.5          17.4               186        3800
##  3 Adelie  Torgersen           39.3          20.6               190        3650
##  4 Adelie  Torgersen           38.9          17.8               181        3625
##  5 Adelie  Torgersen           42            20.2               190        4250
##  6 Adelie  Torgersen           37.8          17.3               180        3700
##  7 Adelie  Torgersen           38.6          21.2               191        3800
##  8 Adelie  Torgersen           34.6          21.1               198        4400
##  9 Adelie  Torgersen           36.6          17.8               185        3700
## 10 Adelie  Torgersen           42.5          20.7               197        4500
## # ... with 146 more rows, and 2 more variables: sex <fct>, year <fct>
```

**Sélectionne les poids  < 3500 et > 4000 gr (utiliser ! devant between)**


```r
penguins |> 
  filter(!between(body_mass_g,  3500, 4500))
## filter: removed 158 rows (46%), 186 rows remaining
## # A tibble: 186 x 8
##    species island    bill_length_mm bill_depth_mm flipper_length_mm body_mass_g
##    <fct>   <fct>              <dbl>         <dbl>             <int>       <int>
##  1 Adelie  Torgersen           40.3          18                 195        3250
##  2 Adelie  Torgersen           36.7          19.3               193        3450
##  3 Adelie  Torgersen           39.2          19.6               195        4675
##  4 Adelie  Torgersen           34.1          18.1               193        3475
##  5 Adelie  Torgersen           37.8          17.1               186        3300
##  6 Adelie  Torgersen           41.1          17.6               182        3200
##  7 Adelie  Torgersen           38.7          19                 195        3450
##  8 Adelie  Torgersen           34.4          18.4               184        3325
##  9 Adelie  Biscoe              37.8          18.3               174        3400
## 10 Adelie  Biscoe              40.5          17.9               187        3200
## # ... with 176 more rows, and 2 more variables: sex <fct>, year <fct>
```

**Sélectionne les mesures faites dans les années 2007 et 2009**


```r
penguins |> 
  filter(year %in% c("2007", "2008"))
## filter: removed 120 rows (35%), 224 rows remaining
## # A tibble: 224 x 8
##    species island    bill_length_mm bill_depth_mm flipper_length_mm body_mass_g
##    <fct>   <fct>              <dbl>         <dbl>             <int>       <int>
##  1 Adelie  Torgersen           39.1          18.7               181        3750
##  2 Adelie  Torgersen           39.5          17.4               186        3800
##  3 Adelie  Torgersen           40.3          18                 195        3250
##  4 Adelie  Torgersen           NA            NA                  NA          NA
##  5 Adelie  Torgersen           36.7          19.3               193        3450
##  6 Adelie  Torgersen           39.3          20.6               190        3650
##  7 Adelie  Torgersen           38.9          17.8               181        3625
##  8 Adelie  Torgersen           39.2          19.6               195        4675
##  9 Adelie  Torgersen           34.1          18.1               193        3475
## 10 Adelie  Torgersen           42            20.2               190        4250
## # ... with 214 more rows, and 2 more variables: sex <fct>, year <fct>
```
…
<br>

> Pas de résultat
> ATTENTION: présence de NA's !


```r
penguins |> 
  filter(body_mass_g > mean(body_mass_g, na.rm = T))
## filter: removed 195 rows (57%), 149 rows remaining
## # A tibble: 149 x 8
##    species island    bill_length_mm bill_depth_mm flipper_length_mm body_mass_g
##    <fct>   <fct>              <dbl>         <dbl>             <int>       <int>
##  1 Adelie  Torgersen           39.2          19.6               195        4675
##  2 Adelie  Torgersen           42            20.2               190        4250
##  3 Adelie  Torgersen           34.6          21.1               198        4400
##  4 Adelie  Torgersen           42.5          20.7               197        4500
##  5 Adelie  Dream               39.8          19.1               184        4650
##  6 Adelie  Dream               44.1          19.7               196        4400
##  7 Adelie  Dream               39.6          18.8               190        4600
##  8 Adelie  Biscoe              40.1          18.9               188        4300
##  9 Adelie  Biscoe              41.3          21.1               195        4400
## 10 Adelie  Torgersen           41.8          19.4               198        4450
## # ... with 139 more rows, and 2 more variables: sex <fct>, year <fct>
```
…
> Pour la suite du script on supprime toutes les lignes avec au moins 1 NA


```r
penguins |> 
  na.omit() -> penguins
```


```r
penguins |> 
  filter(body_mass_g > mean(body_mass_g))
## filter: removed 188 rows (56%), 145 rows remaining
## # A tibble: 145 x 8
##    species island    bill_length_mm bill_depth_mm flipper_length_mm body_mass_g
##    <fct>   <fct>              <dbl>         <dbl>             <int>       <int>
##  1 Adelie  Torgersen           39.2          19.6               195        4675
##  2 Adelie  Torgersen           34.6          21.1               198        4400
##  3 Adelie  Torgersen           42.5          20.7               197        4500
##  4 Adelie  Dream               39.8          19.1               184        4650
##  5 Adelie  Dream               44.1          19.7               196        4400
##  6 Adelie  Dream               39.6          18.8               190        4600
##  7 Adelie  Biscoe              40.1          18.9               188        4300
##  8 Adelie  Biscoe              41.3          21.1               195        4400
##  9 Adelie  Torgersen           41.8          19.4               198        4450
## 10 Adelie  Torgersen           42.8          18.5               195        4250
## # ... with 135 more rows, and 2 more variables: sex <fct>, year <fct>
```

**Sélectionne les males de poids > au poids moyen (de tous les poips)**


```r
penguins |> 
  filter(body_mass_g > mean(body_mass_g)) |> 
  filter(sex == "male")
## filter: removed 188 rows (56%), 145 rows remaining
## filter: removed 53 rows (37%), 92 rows remaining
## # A tibble: 92 x 8
##    species island    bill_length_mm bill_depth_mm flipper_length_mm body_mass_g
##    <fct>   <fct>              <dbl>         <dbl>             <int>       <int>
##  1 Adelie  Torgersen           39.2          19.6               195        4675
##  2 Adelie  Torgersen           34.6          21.1               198        4400
##  3 Adelie  Torgersen           42.5          20.7               197        4500
##  4 Adelie  Dream               39.8          19.1               184        4650
##  5 Adelie  Dream               44.1          19.7               196        4400
##  6 Adelie  Dream               39.6          18.8               190        4600
##  7 Adelie  Biscoe              40.1          18.9               188        4300
##  8 Adelie  Biscoe              41.3          21.1               195        4400
##  9 Adelie  Torgersen           41.8          19.4               198        4450
## 10 Adelie  Torgersen           42.8          18.5               195        4250
## # ... with 82 more rows, and 2 more variables: sex <fct>, year <fct>
```

**Sélectionne les noms d'espèces avec la syllabe "de" dedans**  
(aucun intérêt, c'est pour l'exemple 🙂)


```r
penguins |> 
  filter(grepl("de", species))
## filter: removed 187 rows (56%), 146 rows remaining
## # A tibble: 146 x 8
##    species island    bill_length_mm bill_depth_mm flipper_length_mm body_mass_g
##    <fct>   <fct>              <dbl>         <dbl>             <int>       <int>
##  1 Adelie  Torgersen           39.1          18.7               181        3750
##  2 Adelie  Torgersen           39.5          17.4               186        3800
##  3 Adelie  Torgersen           40.3          18                 195        3250
##  4 Adelie  Torgersen           36.7          19.3               193        3450
##  5 Adelie  Torgersen           39.3          20.6               190        3650
##  6 Adelie  Torgersen           38.9          17.8               181        3625
##  7 Adelie  Torgersen           39.2          19.6               195        4675
##  8 Adelie  Torgersen           41.1          17.6               182        3200
##  9 Adelie  Torgersen           38.6          21.2               191        3800
## 10 Adelie  Torgersen           34.6          21.1               198        4400
## # ... with 136 more rows, and 2 more variables: sex <fct>, year <fct>
```

## Fonction `arrange()`

Appliquer un tri croissant sur une ou plusieurs colonnes

**Tri croissant par le poids**


```r
penguins |> 
  arrange(body_mass_g)
## # A tibble: 333 x 8
##    species   island    bill_length_mm bill_depth_mm flipper_length_~ body_mass_g
##    <fct>     <fct>              <dbl>         <dbl>            <int>       <int>
##  1 Chinstrap Dream               46.9          16.6              192        2700
##  2 Adelie    Biscoe              36.5          16.6              181        2850
##  3 Adelie    Biscoe              36.4          17.1              184        2850
##  4 Adelie    Biscoe              34.5          18.1              187        2900
##  5 Adelie    Dream               33.1          16.1              178        2900
##  6 Adelie    Torgersen           38.6          17                188        2900
##  7 Chinstrap Dream               43.2          16.6              187        2900
##  8 Adelie    Biscoe              37.9          18.6              193        2925
##  9 Adelie    Dream               37            16.9              185        3000
## 10 Adelie    Dream               37.3          16.8              192        3000
## # ... with 323 more rows, and 2 more variables: sex <fct>, year <fct>
```

**Tri décroissant par le poids**


```r
penguins |> 
  arrange(desc(body_mass_g))
## # A tibble: 333 x 8
##    species island bill_length_mm bill_depth_mm flipper_length_mm body_mass_g
##    <fct>   <fct>           <dbl>         <dbl>             <int>       <int>
##  1 Gentoo  Biscoe           49.2          15.2               221        6300
##  2 Gentoo  Biscoe           59.6          17                 230        6050
##  3 Gentoo  Biscoe           51.1          16.3               220        6000
##  4 Gentoo  Biscoe           48.8          16.2               222        6000
##  5 Gentoo  Biscoe           45.2          16.4               223        5950
##  6 Gentoo  Biscoe           49.8          15.9               229        5950
##  7 Gentoo  Biscoe           48.4          14.6               213        5850
##  8 Gentoo  Biscoe           49.3          15.7               217        5850
##  9 Gentoo  Biscoe           55.1          16                 230        5850
## 10 Gentoo  Biscoe           49.5          16.2               229        5800
## # ... with 323 more rows, and 2 more variables: sex <fct>, year <fct>
```

**Tri par espèce puis poids croissant (attention à l'ordre des variables)**


```r
penguins |> 
  arrange(species, body_mass_g)
## # A tibble: 333 x 8
##    species island    bill_length_mm bill_depth_mm flipper_length_mm body_mass_g
##    <fct>   <fct>              <dbl>         <dbl>             <int>       <int>
##  1 Adelie  Biscoe              36.5          16.6               181        2850
##  2 Adelie  Biscoe              36.4          17.1               184        2850
##  3 Adelie  Biscoe              34.5          18.1               187        2900
##  4 Adelie  Dream               33.1          16.1               178        2900
##  5 Adelie  Torgersen           38.6          17                 188        2900
##  6 Adelie  Biscoe              37.9          18.6               193        2925
##  7 Adelie  Dream               37            16.9               185        3000
##  8 Adelie  Dream               37.3          16.8               192        3000
##  9 Adelie  Torgersen           35.9          16.6               190        3050
## 10 Adelie  Torgersen           35.2          15.9               186        3050
## # ... with 323 more rows, and 2 more variables: sex <fct>, year <fct>
```
…
> Lors du tri les NA's sont rajoutés à la fin

## Fonction `select()`

Sélectionne des colonnes par leurs noms  

**Sélectionne la variable species**


```r
penguins |> 
  select(species)
## select: dropped 7 variables (island, bill_length_mm, bill_depth_mm, flipper_length_mm, body_mass_g, …)
## # A tibble: 333 x 1
##    species
##    <fct>  
##  1 Adelie 
##  2 Adelie 
##  3 Adelie 
##  4 Adelie 
##  5 Adelie 
##  6 Adelie 
##  7 Adelie 
##  8 Adelie 
##  9 Adelie 
## 10 Adelie 
## # ... with 323 more rows
```
…
